<?xml version="1.0" encoding="UTF-8"?>
<svg width="24px" height="24px" viewBox="0 0 24 24" version="1.1" xmlns="http://www.w3.org/2000/svg"
     xmlns:xlink="http://www.w3.org/1999/xlink">
    <!-- Generator: Sketch 50.2 (55047) - http://www.bohemiancoding.com/sketch -->
    <title>Stockholm-icons / Clothes / Hat</title>
    <desc>Created with Sketch.</desc>
    <defs></defs>
    <g id="Stockholm-icons-/-Clothes-/-Hat" stroke="none" stroke-width="1" fill="none" fill-rule="evenodd">
        <polygon id="bound" points="0 0 24 0 24 24 0 24"></polygon>
        <path
            d="M18,12.4295928 C17.2669186,12.6704291 16.4412565,12.9956068 15.5133174,13.4076808 C13.0064958,12.2758653 10.8413979,11.4333578 9,10.8654042 L9,9.5 C9,7.56700338 10.5670034,6 12.5,6 L14.5,6 C16.4329966,6 18,7.56700338 18,9.5 L18,12.4295928 Z"
            id="Combined-Shape" fill="#000000"></path>
        <path
            d="M1.97502784,15.5343205 C1.52260938,13.444473 -0.334645988,6.68676677 15.5,15.0461567 C15.0475815,15.0461567 3.33228321,22.3263248 1.97502784,15.5343205 Z M21.8957427,15.0583409 C22.0943929,14.1407199 22.4527579,11.3878569 15.5,15.0583409 C15.6986502,15.0583409 21.299792,18.0406092 21.8957427,15.0583409 Z"
            id="Combined-Shape" fill="#000000" opacity="0.3"></path>
    </g>
</svg>
