<?xml version="1.0" encoding="UTF-8"?>
<svg width="24px" height="24px" viewBox="0 0 24 24" version="1.1" xmlns="http://www.w3.org/2000/svg"
     xmlns:xlink="http://www.w3.org/1999/xlink">
    <!-- Generator: Sketch 50.2 (55047) - http://www.bohemiancoding.com/sketch -->
    <title>Stockholm-icons / General / Update</title>
    <desc>Created with Sketch.</desc>
    <defs></defs>
    <g id="Stockholm-icons-/-General-/-Update" stroke="none" stroke-width="1" fill="none" fill-rule="evenodd">
        <rect id="bound" x="0" y="0" width="24" height="24"></rect>
        <path
            d="M8.43296491,7.17429118 L9.40782327,7.85689436 C9.49616631,7.91875282 9.56214077,8.00751728 9.5959027,8.10994332 C9.68235021,8.37220548 9.53982427,8.65489052 9.27756211,8.74133803 L5.89079566,9.85769242 C5.84469033,9.87288977 5.79661753,9.8812917 5.74809064,9.88263369 C5.4720538,9.8902674 5.24209339,9.67268366 5.23445968,9.39664682 L5.13610134,5.83998177 C5.13313425,5.73269078 5.16477113,5.62729274 5.22633424,5.53937151 C5.384723,5.31316892 5.69649589,5.25819495 5.92269848,5.4165837 L6.72910242,5.98123382 C8.16546398,4.72182424 10.0239806,4 12,4 C16.418278,4 20,7.581722 20,12 C20,16.418278 16.418278,20 12,20 C7.581722,20 4,16.418278 4,12 L6,12 C6,15.3137085 8.6862915,18 12,18 C15.3137085,18 18,15.3137085 18,12 C18,8.6862915 15.3137085,6 12,6 C10.6885336,6 9.44767246,6.42282109 8.43296491,7.17429118 Z"
            id="Combined-Shape" fill="#000000" fill-rule="nonzero"></path>
    </g>
</svg>
