<?xml version="1.0" encoding="iso-8859-1"?>
<!-- Generator: Adobe Illustrator 19.0.0, SVG Export Plug-In . SVG Version: 6.00 Build 0)  -->
<svg xmlns="http://www.w3.org/2000/svg" xmlns:xlink="http://www.w3.org/1999/xlink" version="1.1" id="Layer_1" x="0px"
     y="0px" viewBox="0 0 512.002 512.002" style="enable-background:new 0 0 512.002 512.002;" xml:space="preserve">
<rect x="0.052" y="0.026" style="fill:#F5F5F5;" width="511.95" height="511.95"/>
    <g>
	<path style="fill:#464655;" d="M256.026,256V0.026H8.879c-2.147,0-4.041,1.313-5.57,3.257L256.026,256z"/>
        <polygon style="fill:#464655;" points="511.948,0.026 256.026,256 512,256  "/>
        <polygon style="fill:#464655;" points="0,511.974 256.026,256 0.052,256  "/>
        <polygon style="fill:#464655;" points="256.026,256 256.026,511.974 511.948,511.974  "/>
</g>
    <path style="fill:#FF4B55;"
          d="M288.36,237.139v43.112c0,17.829-14.505,32.334-32.334,32.334s-32.334-14.505-32.334-32.334v-43.112  L288.36,237.139 M299.138,215.583h-86.223c-5.952,0-10.778,4.826-10.778,10.778v53.89c0,29.762,24.128,53.89,53.89,53.89  s53.889-24.128,53.889-53.89v-53.89C309.915,220.409,305.09,215.583,299.138,215.583L299.138,215.583z"/>
    <path style="fill:#F5F5F5;"
          d="M288.36,237.139v43.112c0,17.829-14.505,32.334-32.334,32.334s-32.334-14.505-32.334-32.334v-43.112  L288.36,237.139"/>
    <g>
	<path style="fill:#FFE15A;"
          d="M217.132,222.915c3.554,5.466-2.281,11.301-7.747,7.747c-0.34-0.221-0.635-0.516-0.856-0.856   c-3.554-5.466,2.281-11.301,7.747-7.747C216.616,222.28,216.911,222.575,217.132,222.915z"/>
        <path style="fill:#FFE15A;"
              d="M303.355,222.915c3.554,5.466-2.281,11.301-7.747,7.747c-0.34-0.221-0.635-0.516-0.856-0.856   c-3.554-5.466,2.281-11.301,7.747-7.747C302.839,222.28,303.134,222.575,303.355,222.915z"/>
        <path style="fill:#FFE15A;"
              d="M217.132,266.027c3.554,5.466-2.281,11.301-7.747,7.747c-0.34-0.221-0.635-0.516-0.856-0.856   c-3.554-5.466,2.281-11.301,7.747-7.747C216.616,265.392,216.911,265.687,217.132,266.027z"/>
        <path style="fill:#FFE15A;"
              d="M303.355,266.027c3.554,5.466-2.281,11.301-7.747,7.747c-0.34-0.221-0.635-0.516-0.856-0.856   c-3.554-5.466,2.281-11.301,7.747-7.747C302.839,265.392,303.134,265.687,303.355,266.027z"/>
        <path style="fill:#FFE15A;"
              d="M260.244,222.915c3.554,5.466-2.281,11.301-7.747,7.747c-0.34-0.221-0.635-0.516-0.856-0.856   c-3.554-5.466,2.281-11.301,7.747-7.747C259.728,222.28,260.023,222.575,260.244,222.915z"/>
        <path style="fill:#FFE15A;"
              d="M260.244,320.338c3.554,5.466-2.281,11.301-7.747,7.747c-0.34-0.221-0.635-0.516-0.856-0.856   c-3.554-5.466,2.281-11.301,7.747-7.747C259.728,319.704,260.023,319.999,260.244,320.338z"/>
        <path style="fill:#FFE15A;"
              d="M292.599,305.77c3.554,5.466-2.281,11.301-7.747,7.747c-0.34-0.221-0.635-0.516-0.856-0.856   c-3.554-5.466,2.281-11.301,7.747-7.747C292.083,305.135,292.378,305.43,292.599,305.77z"/>
        <path style="fill:#FFE15A;"
              d="M228.523,305.77c3.554,5.466-2.281,11.301-7.747,7.747c-0.34-0.221-0.635-0.516-0.856-0.856   c-3.554-5.466,2.281-11.301,7.747-7.747C228.007,305.135,228.302,305.43,228.523,305.77z"/>
</g>
    <g>
	<path style="fill:#41479B;"
          d="M262.987,266.741v9.281c0,3.839-3.123,6.96-6.96,6.96c-3.838,0-6.96-3.123-6.96-6.96v-9.281H262.987   "/>
        <path style="fill:#41479B;"
              d="M262.987,244.736v9.281c0,3.839-3.123,6.96-6.96,6.96c-3.838,0-6.96-3.123-6.96-6.96v-9.281   L262.987,244.736"/>
        <path style="fill:#41479B;"
              d="M262.987,288.97v9.281c0,3.839-3.123,6.96-6.96,6.96c-3.838,0-6.96-3.123-6.96-6.96v-9.281H262.987"/>
        <path style="fill:#41479B;"
              d="M281.736,266.741v9.281c0,3.839-3.123,6.96-6.96,6.96c-3.838,0-6.96-3.123-6.96-6.96v-9.281H281.736   "/>
        <path style="fill:#41479B;"
              d="M244.238,266.741v9.281c0,3.839-3.123,6.96-6.96,6.96c-3.839,0-6.96-3.123-6.96-6.96v-9.281H244.238   "/>
</g>
    <path style="fill:#FFE15A;"
          d="M310.776,215.583H201.81c-2.079,0-3.765-1.686-3.765-3.765v-9.114c0-2.079,1.686-3.765,3.765-3.765  h108.967c2.079,0,3.765,1.686,3.765,3.765v9.114C314.541,213.898,312.855,215.583,310.776,215.583z"/>
    <polygon style="fill:#FF4B55;" points="256.293,203.101 247.972,207.262 256.293,211.423 264.614,207.262 "/>
    <g>
	<ellipse style="fill:#4173CD;" cx="283.34" cy="207.26" rx="6.24" ry="4.161"/>
        <ellipse style="fill:#4173CD;" cx="229.25" cy="207.26" rx="6.24" ry="4.161"/>
</g>
    <g>
	<path style="fill:#F5F5F5;"
          d="M272.545,205.979c1.299,2.081-0.893,4.273-2.974,2.974c-0.162-0.101-0.306-0.245-0.407-0.407   c-1.299-2.081,0.893-4.273,2.974-2.974C272.3,205.673,272.444,205.817,272.545,205.979z"/>
        <path style="fill:#F5F5F5;"
              d="M297.509,205.979c1.299,2.081-0.893,4.273-2.974,2.974c-0.162-0.101-0.306-0.245-0.407-0.407   c-1.299-2.081,0.893-4.273,2.974-2.974C297.264,205.673,297.408,205.817,297.509,205.979z"/>
        <path style="fill:#F5F5F5;"
              d="M243.421,205.979c1.299,2.081-0.893,4.273-2.974,2.974c-0.162-0.101-0.306-0.245-0.407-0.407   c-1.299-2.081,0.893-4.273,2.974-2.974C243.176,205.673,243.32,205.817,243.421,205.979z"/>
        <path style="fill:#F5F5F5;"
              d="M218.458,205.979c1.299,2.081-0.893,4.273-2.974,2.974c-0.162-0.101-0.306-0.245-0.407-0.407   c-1.299-2.081,0.893-4.273,2.974-2.974C218.213,205.673,218.357,205.817,218.458,205.979z"/>
</g>
    <g>
	<polygon style="fill:#FF4B55;"
             points="198.045,205.182 198.045,209.343 202.205,211.423 210.527,207.262 202.205,203.101  "/>
        <polygon style="fill:#FF4B55;"
                 points="314.541,209.343 314.541,205.182 310.38,203.101 302.059,207.262 310.38,211.423  "/>
</g>
    <g>
	<path style="fill:#F5F5F5;"
          d="M228.605,171.877c-1.327-0.654-2.906-0.251-4.234,0.776c0.682-1.009,1.073-2.354,0.999-3.819   c-0.152-2.976-2.135-5.294-4.43-5.177s-4.033,2.624-3.881,5.599c0.081,1.582,0.697,2.942,1.585,3.886   c-1.792-0.875-3.752-0.789-4.949,0.409c-1.625,1.624-1.234,4.651,0.873,6.757c2.107,2.108,5.132,2.499,6.757,0.874   c0.454-0.454,0.713-1.028,0.859-1.65c0.331,0.87,0.842,1.625,1.652,2.025c2.061,1.016,4.8-0.328,6.117-3.001   C231.27,175.883,230.667,172.892,228.605,171.877z M222.488,174.878c-0.305,0.619-0.484,1.255-0.589,1.88   c-0.31-0.821-0.746-1.629-1.449-2.332c-0.121-0.122-0.268-0.179-0.395-0.29c0.456,0.189,0.932,0.324,1.434,0.299   c0.674-0.035,1.272-0.321,1.815-0.718C223.014,174.083,222.708,174.431,222.488,174.878z"/>
        <path style="fill:#F5F5F5;"
              d="M282.1,178.556c1.317,2.673,4.056,4.017,6.117,3.001c0.81-0.399,1.32-1.155,1.652-2.025   c0.146,0.622,0.406,1.196,0.859,1.65c1.625,1.625,4.651,1.234,6.757-0.874c2.107-2.107,2.499-5.132,0.873-6.757   c-1.198-1.199-3.158-1.284-4.95-0.409c0.887-0.943,1.504-2.304,1.585-3.886c0.151-2.976-1.586-5.483-3.881-5.599   c-2.295-0.117-4.278,2.201-4.43,5.177c-0.075,1.465,0.316,2.81,0.999,3.819c-1.329-1.028-2.907-1.43-4.234-0.776   C281.386,172.892,280.783,175.883,282.1,178.556z M288.749,173.716c0.544,0.397,1.142,0.684,1.815,0.718   c0.502,0.025,0.978-0.11,1.434-0.299c-0.127,0.11-0.274,0.168-0.395,0.29c-0.703,0.703-1.139,1.512-1.449,2.332   c-0.105-0.625-0.283-1.261-0.589-1.88C289.345,174.431,289.038,174.083,288.749,173.716z"/>
</g>
    <path style="fill:#FFE15A;"
          d="M331.958,159.655c-5.993-2.133-18.601-3.275-23.4,7.618c-0.926,2.105,0.026,4.559,2.129,5.485  c2.033,0.897,4.37,0.009,5.362-1.956l1.569,1.858c-1.312,3.688-1.839,6.986-1.987,8.122c-2.141,8.874-10.379,9.837-13.841,9.837  c-5.584,0-8.742-5.984-8.772-6.045c-0.569-1.101-1.609-1.902-2.822-2.166c-1.217-0.264-2.487,0.016-3.462,0.78  c-2.28,1.792-9.371,6.631-14.723,7.484c-2.58,0.414-4.685-0.016-6.106-1.235c-1.152-0.983-1.56-2.219-1.56-2.979  c0-1.865,2.294-4.161,4.161-4.161c1.414,0,1.957,0.906,1.957,0.906c0.987,2.089,3.47,2.97,5.544,1.991  c2.078-0.987,2.964-3.466,1.981-5.542c-0.807-1.707-3.032-4.339-6.684-5.291c2.22-3.523,4.259-7.803,5.524-12.866l-12.482-4.161  c0,0,4.161-12.482-8.321-12.482c-12.482,0-8.321,12.482-8.321,12.482l-12.482,4.161c1.266,5.062,3.305,9.344,5.524,12.866  c-3.653,0.953-5.877,3.585-6.684,5.291c-0.983,2.076-0.098,4.555,1.981,5.542c2.074,0.979,4.557,0.098,5.54-1.983  c0,0,0.547-0.914,1.961-0.914c1.867,0,4.161,2.296,4.161,4.161c0,0.76-0.408,1.995-1.56,2.979c-1.422,1.219-3.527,1.65-6.106,1.235  c-5.351-0.853-12.443-5.692-14.723-7.484c-0.975-0.764-2.245-1.044-3.462-0.78c-1.213,0.264-2.253,1.065-2.822,2.166  c-0.03,0.061-3.188,6.045-8.772,6.045c-3.462,0-11.7-0.963-13.841-9.837c-0.147-1.136-0.674-4.435-1.987-8.122l1.569-1.858  c0.994,1.965,3.33,2.853,5.362,1.956c2.103-0.926,3.056-3.381,2.129-5.485c-4.799-10.893-17.406-9.751-23.4-7.618  c-1.717,0.61-2.838,2.263-2.767,4.084c0.069,1.82,1.317,3.381,3.076,3.856c5.097,1.369,7.384,11.113,7.783,14.416  c0.018,0.142,0.045,0.293,0.075,0.435c2.326,10.174,10.757,16.496,22,16.496c6.444,0,10.899-3.649,13.486-6.671  c3.645,2.402,9.51,5.749,14.984,6.618c1.05,0.167,2.078,0.252,3.082,0.252c3.759,0,7.141-1.158,9.735-3.373  c2.806-2.393,4.48-5.875,4.48-9.308c0,3.434,1.674,6.915,4.48,9.308c2.595,2.215,5.976,3.373,9.735,3.373  c1.004,0,2.032-0.085,3.082-0.252c5.475-0.87,11.34-4.218,14.984-6.618c2.586,3.023,7.041,6.671,13.486,6.671  c11.243,0,19.673-6.322,22-16.496c0.03-0.142,0.057-0.293,0.075-0.435c0.398-3.304,2.686-13.047,7.783-14.416  c1.759-0.475,3.007-2.036,3.076-3.856C334.797,161.919,333.675,160.265,331.958,159.655z"/>
    <g>

		<ellipse transform="matrix(-0.9237 0.3831 -0.3831 -0.9237 424.7844 263.3695)" style="fill:#4173CD;" cx="186.167"
                 cy="173.982" rx="4.161" ry="6.24"/>

        <ellipse transform="matrix(0.9237 0.3831 -0.3831 0.9237 91.5134 -111.5785)" style="fill:#4173CD;" cx="325.896"
                 cy="173.973" rx="4.161" ry="6.24"/>
        <ellipse style="fill:#4173CD;" cx="256.02" cy="169.81" rx="6.24" ry="8.321"/>
</g>
    <g>
</g>
    <g>
</g>
    <g>
</g>
    <g>
</g>
    <g>
</g>
    <g>
</g>
    <g>
</g>
    <g>
</g>
    <g>
</g>
    <g>
</g>
    <g>
</g>
    <g>
</g>
    <g>
</g>
    <g>
</g>
    <g>
</g>
</svg>
