<?xml version="1.0" encoding="iso-8859-1"?>
<!-- Generator: Adobe Illustrator 19.0.0, SVG Export Plug-In . SVG Version: 6.00 Build 0)  -->
<svg xmlns="http://www.w3.org/2000/svg" xmlns:xlink="http://www.w3.org/1999/xlink" version="1.1" id="Layer_1" x="0px"
     y="0px" viewBox="0 0 512 512" style="enable-background:new 0 0 512 512;" xml:space="preserve">
<rect style="fill:#FF4B55;" width="512" height="512"/>
    <g>
	<path style="fill:#FFE15A;"
          d="M114.021,87.181l12.722,38.146l40.21,0.312c5.206,0.04,7.365,6.684,3.177,9.777l-32.348,23.887   l12.129,38.339c1.57,4.964-4.081,9.07-8.317,6.042l-32.714-23.383l-32.714,23.383c-4.235,3.027-9.887-1.079-8.317-6.042   l12.129-38.339L47.63,135.416c-4.188-3.093-2.029-9.736,3.177-9.777l40.21-0.312l12.722-38.146   C105.388,82.243,112.374,82.243,114.021,87.181z"/>
        <path style="fill:#FFE15A;"
              d="M260.037,96.582l9.122,12.44l14.723-4.604c1.906-0.596,3.474,1.577,2.307,3.198l-9.012,12.52   l8.928,12.58c1.156,1.629-0.426,3.791-2.329,3.183l-14.692-4.702l-9.205,12.378c-1.192,1.603-3.738,0.766-3.746-1.231   l-0.068-15.426l-14.617-4.929c-1.892-0.638-1.883-3.318,0.013-3.944l14.65-4.831l0.171-15.425   C256.305,95.791,258.856,94.971,260.037,96.582z"/>
        <path style="fill:#FFE15A;"
              d="M204.496,59.501l15.336,1.667l6.542-13.97c0.847-1.809,3.509-1.498,3.917,0.457l3.154,15.1   l15.308,1.905c1.982,0.247,2.509,2.874,0.776,3.866l-13.387,7.665l2.919,15.147c0.378,1.961-1.958,3.275-3.437,1.933   l-11.427-10.363l-13.504,7.457c-1.748,0.965-3.719-0.85-2.901-2.672l6.324-14.07l-11.265-10.539   C201.393,61.72,202.511,59.285,204.496,59.501z"/>
        <path style="fill:#FFE15A;"
              d="M228.739,208.997l-9.122,12.44l-14.723-4.604c-1.906-0.596-3.474,1.577-2.307,3.198l9.012,12.52   l-8.928,12.58c-1.156,1.629,0.426,3.791,2.329,3.183l14.692-4.702l9.205,12.378c1.192,1.603,3.738,0.766,3.746-1.231l0.068-15.426   l14.617-4.929c1.892-0.638,1.883-3.318-0.013-3.943l-14.65-4.831l-0.171-15.425C232.472,208.206,229.92,207.386,228.739,208.997z"/>
        <path style="fill:#FFE15A;"
              d="M284.281,174.151l-15.336,1.667l-6.542-13.97c-0.847-1.809-3.509-1.498-3.917,0.457l-3.153,15.1   l-15.308,1.905c-1.982,0.247-2.509,2.874-0.776,3.866l13.387,7.665l-2.919,15.147c-0.378,1.961,1.958,3.275,3.437,1.933   l11.427-10.363l13.504,7.457c1.748,0.965,3.719-0.85,2.901-2.672l-6.324-14.07l11.265-10.539   C287.384,176.371,286.266,173.935,284.281,174.151z"/>
</g>
    <g>
</g>
    <g>
</g>
    <g>
</g>
    <g>
</g>
    <g>
</g>
    <g>
</g>
    <g>
</g>
    <g>
</g>
    <g>
</g>
    <g>
</g>
    <g>
</g>
    <g>
</g>
    <g>
</g>
    <g>
</g>
    <g>
</g>
</svg>
