<?xml version="1.0" encoding="UTF-8"?>
<svg width="24px" height="24px" viewBox="0 0 24 24" version="1.1" xmlns="http://www.w3.org/2000/svg"
     xmlns:xlink="http://www.w3.org/1999/xlink">
    <!-- Generator: Sketch 50.2 (55047) - http://www.bohemiancoding.com/sketch -->
    <title>Stockholm-icons / Files / Compiled-file</title>
    <desc>Created with Sketch.</desc>
    <defs></defs>
    <g id="Stockholm-icons-/-Files-/-Compiled-file" stroke="none" stroke-width="1" fill="none" fill-rule="evenodd">
        <polygon id="Shape" points="0 0 24 0 24 24 0 24"></polygon>
        <path
            d="M5.85714286,2 L13.7364114,2 C14.0910962,2 14.4343066,2.12568431 14.7051108,2.35473959 L19.4686994,6.3839416 C19.8056532,6.66894833 20,7.08787823 20,7.52920201 L20,20.0833333 C20,21.8738751 19.9795521,22 18.1428571,22 L5.85714286,22 C4.02044787,22 4,21.8738751 4,20.0833333 L4,3.91666667 C4,2.12612489 4.02044787,2 5.85714286,2 Z"
            id="Combined-Shape" fill="#000000" fill-rule="nonzero" opacity="0.3"></path>
        <rect id="Rectangle-41" fill="#000000" opacity="0.3"
              transform="translate(8.984240, 12.127098) rotate(-45.000000) translate(-8.984240, -12.127098) "
              x="7.41281179" y="10.5556689" width="3.14285714" height="3.14285714" rx="0.75"></rect>
        <rect id="Rectangle-41-Copy" fill="#000000" opacity="0.3"
              transform="translate(15.269955, 12.127098) rotate(-45.000000) translate(-15.269955, -12.127098) "
              x="13.6985261" y="10.5556689" width="3.14285714" height="3.14285714" rx="0.75"></rect>
        <rect id="Rectangle-41-Copy-3" fill="#000000"
              transform="translate(12.127098, 15.269955) rotate(-45.000000) translate(-12.127098, -15.269955) "
              x="10.5556689" y="13.6985261" width="3.14285714" height="3.14285714" rx="0.75"></rect>
        <rect id="Rectangle-41-Copy-4" fill="#000000"
              transform="translate(12.127098, 8.984240) rotate(-45.000000) translate(-12.127098, -8.984240) "
              x="10.5556689" y="7.41281179" width="3.14285714" height="3.14285714" rx="0.75"></rect>
    </g>
</svg>
