<?xml version="1.0" encoding="UTF-8"?>
<svg width="24px" height="24px" viewBox="0 0 24 24" version="1.1" xmlns="http://www.w3.org/2000/svg"
     xmlns:xlink="http://www.w3.org/1999/xlink">
    <!-- Generator: Sketch 50.2 (55047) - http://www.bohemiancoding.com/sketch -->
    <title>Stockholm-icons / Devices / Video-camera</title>
    <desc>Created with Sketch.</desc>
    <defs></defs>
    <g id="Stockholm-icons-/-Devices-/-Video-camera" stroke="none" stroke-width="1" fill="none" fill-rule="evenodd">
        <rect id="bound" x="0" y="0" width="24" height="24"></rect>
        <rect id="Combined-Shape" fill="#000000" x="2" y="6" width="13" height="12" rx="2"></rect>
        <path
            d="M22,8.4142119 L22,15.5857848 C22,16.1380695 21.5522847,16.5857848 21,16.5857848 C20.7347833,16.5857848 20.4804293,16.4804278 20.2928929,16.2928912 L16.7071064,12.7071013 C16.3165823,12.3165768 16.3165826,11.6834118 16.7071071,11.2928877 L20.2928936,7.70710477 C20.683418,7.31658067 21.316583,7.31658098 21.7071071,7.70710546 C21.8946433,7.89464181 22,8.14899558 22,8.4142119 Z"
            id="Path-2" fill="#000000" opacity="0.3"></path>
    </g>
</svg>
