<?xml version="1.0" encoding="UTF-8"?>
<svg width="24px" height="24px" viewBox="0 0 24 24" version="1.1" xmlns="http://www.w3.org/2000/svg"
     xmlns:xlink="http://www.w3.org/1999/xlink">
    <!-- Generator: Sketch 50.2 (55047) - http://www.bohemiancoding.com/sketch -->
    <title>Stockholm-icons / Code / Shift</title>
    <desc>Created with Sketch.</desc>
    <defs></defs>
    <g id="Stockholm-icons-/-Code-/-Shift" stroke="none" stroke-width="1" fill="none" fill-rule="evenodd">
        <rect id="bound" x="0" y="0" width="24" height="24"></rect>
        <path
            d="M12.5936684,18.0752333 L12.5936684,14.4063316 L18.5936684,14.4063316 L18.5936684,8.40633161 L12.5936684,8.40633161 L12.5936684,4.73208782 L5.92209543,11.3984411 L12.5936684,18.0752333 Z M14.5936684,6.40633161 L19.5936684,6.40633161 C20.1459531,6.40633161 20.5936684,6.85404686 20.5936684,7.40633161 L20.5936684,15.4063316 C20.5936684,15.9586164 20.1459531,16.4063316 19.5936684,16.4063316 L14.5936684,16.4063316 L14.5936684,21.0946697 C14.5936684,21.2936837 14.5145702,21.484538 14.3737911,21.6252071 C14.0807833,21.9179858 13.6059096,21.9178001 13.313131,21.6247924 L3.62379074,11.9278722 C3.33101216,11.6348644 3.33119799,11.1599907 3.6242058,10.8672121 L13.3135459,1.18545264 C13.4541812,1.04492729 13.6448577,0.965990217 13.8436684,0.965990217 C14.257882,0.965990217 14.5936684,1.30177665 14.5936684,1.71599022 L14.5936684,6.40633161 Z"
            id="Shape" fill="#000000" fill-rule="nonzero"
            transform="translate(11.998998, 11.405330) scale(-1, 1) rotate(-270.000000) translate(-11.998998, -11.405330) "></path>
    </g>
</svg>
