<?xml version="1.0" encoding="iso-8859-1"?>
<!-- Generator: Adobe Illustrator 19.0.0, SVG Export Plug-In . SVG Version: 6.00 Build 0)  -->
<svg xmlns="http://www.w3.org/2000/svg" xmlns:xlink="http://www.w3.org/1999/xlink" version="1.1" id="Layer_1" x="0px"
     y="0px" viewBox="0 0 512 512" style="enable-background:new 0 0 512 512;" xml:space="preserve">
<rect style="fill:#41479B;" width="512" height="512"/>
    <path style="fill:#FF4B55;"
          d="M512,0H0v512h512V0z M494.345,242.526H398L264.828,132V16.474h229.517V242.526z M256,356  L124.798,249.98L256,149.98l131.203,100L256,356z M247.173,16.474V132L114,242.526H17.655V16.474H247.173z M17.655,258.474H114  L247.173,370v126H17.655V258.474z M264.828,496V370L398,258.474h96.345V496H264.828z"/>
    <polygon style="fill:#F5F5F5;"
             points="256,142 124.797,250 172.474,288.882 210.631,320 256,357 301.369,320 361.443,271.008   387.203,250 "/>
    <polyline style="fill:#73AF00;"
              points="361.443,271.008 333.951,229.813 324.299,229.813 317.174,240.489 312.091,232.874   301.925,232.874 262.932,291.303 213.981,291.303 202.866,266.639 188.758,266.639 183.2,278.31 176.954,278.31 172.474,288.882   210.631,320 301.369,320 "/>
    <path style="fill:#FFE15A;"
          d="M258.919,194.021l3.509,10.52l11.09,0.086c1.436,0.011,2.031,1.843,0.876,2.696l-8.921,6.588  l3.345,10.573c0.433,1.369-1.126,2.501-2.294,1.666l-9.022-6.449l-9.022,6.449c-1.168,0.835-2.727-0.297-2.294-1.666l3.345-10.573  l-8.921-6.588c-1.155-0.853-0.56-2.685,0.876-2.696l11.09-0.086l3.509-10.52C256.538,192.659,258.465,192.659,258.919,194.021z"/>
    <g>
</g>
    <g>
</g>
    <g>
</g>
    <g>
</g>
    <g>
</g>
    <g>
</g>
    <g>
</g>
    <g>
</g>
    <g>
</g>
    <g>
</g>
    <g>
</g>
    <g>
</g>
    <g>
</g>
    <g>
</g>
    <g>
</g>
</svg>
