<?xml version="1.0" encoding="iso-8859-1"?>
<!-- Generator: Adobe Illustrator 19.0.0, SVG Export Plug-In . SVG Version: 6.00 Build 0)  -->
<svg xmlns="http://www.w3.org/2000/svg" xmlns:xlink="http://www.w3.org/1999/xlink" version="1.1" id="Layer_1" x="0px"
     y="0px" viewBox="0 0 512 512" style="enable-background:new 0 0 512 512;" xml:space="preserve">
<rect style="fill:#F5F5F5;" width="512" height="512"/>
    <polygon style="fill:#FF4B55;"
             points="512,229.053 282.948,229.053 282.948,0 229.053,0 229.053,229.053 0,229.053 0,282.948   229.053,282.948 229.053,512 282.948,512 282.948,282.948 512,282.948 "/>
    <g>
	<path style="fill:#464655;"
          d="M165.138,112.113c1.482-2.965-6.714-12.569-6.279-14.744c0.435-2.176,1.406-5.51-2.076-18.13   s-13.94-15.669-26.56-16.975c-12.62-1.305-29.304,7.745-33.072,17.624c-2.274,5.962-0.736,12.622,1.65,18.961   c-1.071,0.116-3.122,0.175-4.635-0.943c-1.203-0.898-1.863-2.421-1.979-4.522c-0.422-8.003,3.944-21.112,3.991-21.241l0.326-0.979   L82.798,66.33l0.806,6.432l-10.576-2.257l0.646,1.775c0.931,2.556,9.124,25.035,10.226,27.02c1.809,3.243,4.263,5.317,7.296,6.16   c1.088,0.306,2.162,0.422,3.182,0.422c0.131,0,0.241-0.034,0.37-0.037c-0.621,1.143-1.877,2.585-5.075,4.069   c-3.752,1.729-7.55,3.593-7.965,10.596l-0.112,0.059c0.034,0.065,0.073,0.1,0.107,0.164c-0.09,1.85-0.006,3.965,0.437,6.622   c1.101,6.568,3.338,13.014,3.434,13.286l0.218,0.619l0.653,0.075c0.048,0,4.352,0.517,5.671,5.038   c0.762,2.618,3.162,4.603,5.521,4.603c0.061,0,0.122-0.007,0.184-0.007c1.02-0.048,3.488-0.578,4.29-4.576l0.116-0.578   l-6.483-5.965l2.172-7.165l-1.034-0.279c-0.06-0.015-4.354-1.307-8.798-6.154c-0.411-1.996-0.363-3.438,0.169-4.256   c0.605-0.918,1.89-1.176,3.379-1.475c1.387-0.279,2.822-0.564,3.984-1.469c3.737-2.921,5.829-7.943,6.888-11.383   c0.574,1.3,1.124,2.563,1.611,3.768c3.699,9.138-6.527,19.582-6.527,19.582c6.527,2.611,7.18,4.134,16.318,15.448   s17.406,6.527,17.406,6.527s-1.176-7.244,4.83-10.302c6.007-3.058,6.143-6.99,6.143-6.99c14.99,3.522,15.891-2.621,15.236-4.751   c-0.655-2.129,0.164-5.488,0.164-5.488s1.509,0.095,2.621-0.655c1.761-1.187,0.574-4.013,0.574-4.013   c1.72-0.819,2.376-2.621,1.065-4.014c-1.311-1.392-1.229-2.948-1.229-2.948S164.156,114.078,165.138,112.113z M91.76,103.448   c-2.475-0.687-4.508-2.427-6.038-5.167c-0.728-1.305-5.82-15.02-9.444-24.947l7.601,1.62l1.429,11.408l2.067-0.258l-2.087-16.672   l8.594,3.026c-1.034,3.27-4.161,13.857-3.774,21.037c0.143,2.754,1.088,4.8,2.808,6.085c1.557,1.163,3.427,1.435,4.855,1.435   c0.842,0,1.415-0.082,1.802-0.15c0.213,0.524,0.433,1.039,0.652,1.557C99.017,103.013,95.476,104.502,91.76,103.448z    M99.926,146.542c-0.292,1.027-0.911,2.285-2.203,2.339c-0.027,0-0.061,0-0.095,0c-1.421,0-3.019-1.394-3.515-3.094   c-0.025-0.088-0.077-0.133-0.105-0.218l1.061-3.5L99.926,146.542z M95.316,134.072l-2.656,8.742   c-1.723-2.338-4.137-3.165-5.306-3.439c-0.571-1.72-2.271-7.078-3.155-12.361c-0.185-1.115-0.276-2.065-0.36-3.004   C88.239,130.451,93.199,133.231,95.316,134.072z M94.33,117.407c-0.768,0.598-1.904,0.823-3.107,1.067   c-1.707,0.34-3.631,0.728-4.719,2.38c-0.398,0.604-0.594,1.362-0.695,2.207c-0.694-0.981-1.405-1.81-2.054-3.004   c0.461-5.317,3.355-6.664,6.795-8.253c4.961-2.296,6.112-4.743,6.603-6.204c1.768-0.345,3.093-0.892,3.878-1.265   c0.039,0.091,0.078,0.174,0.118,0.265C100.602,107.01,98.721,113.978,94.33,117.407z M105.998,108.017l-4.26-9.174l50.13-23.263   c3.277,6.226,3.605,13.597,3.605,13.597L105.998,108.017z"/>
        <path style="fill:#464655;"
              d="M438.793,112.113c1.482-2.965-6.714-12.569-6.279-14.744s1.406-5.51-2.076-18.13   s-13.94-15.669-26.56-16.975c-12.62-1.305-29.304,7.745-33.072,17.624c-2.274,5.962-0.736,12.622,1.65,18.961   c-1.071,0.116-3.122,0.175-4.635-0.943c-1.203-0.898-1.863-2.421-1.979-4.522c-0.422-8.003,3.944-21.112,3.991-21.241l0.326-0.979   l-13.707-4.834l0.806,6.432l-10.576-2.257l0.646,1.775c0.931,2.557,9.125,25.035,10.226,27.021c1.809,3.243,4.263,5.317,7.296,6.16   c1.088,0.306,2.162,0.422,3.182,0.422c0.131,0,0.241-0.034,0.37-0.037c-0.621,1.143-1.877,2.585-5.075,4.069   c-3.752,1.729-7.55,3.593-7.965,10.596l-0.112,0.059c0.034,0.065,0.073,0.1,0.107,0.164c-0.09,1.85-0.006,3.965,0.437,6.622   c1.101,6.568,3.338,13.014,3.434,13.286l0.218,0.619l0.653,0.075c0.048,0,4.352,0.517,5.671,5.038   c0.762,2.618,3.162,4.603,5.521,4.603c0.061,0,0.122-0.007,0.184-0.007c1.02-0.048,3.488-0.578,4.29-4.576l0.116-0.578   l-6.483-5.965l2.172-7.165l-1.034-0.279c-0.06-0.015-4.354-1.307-8.797-6.154c-0.411-1.996-0.363-3.438,0.169-4.256   c0.605-0.918,1.89-1.176,3.379-1.475c1.387-0.279,2.822-0.564,3.984-1.469c3.737-2.921,5.829-7.943,6.888-11.383   c0.574,1.3,1.124,2.563,1.611,3.768c3.699,9.138-6.527,19.582-6.527,19.582c6.527,2.611,7.18,4.134,16.318,15.448   s17.406,6.527,17.406,6.527s-1.176-7.244,4.83-10.302c6.007-3.058,6.143-6.99,6.143-6.99c14.99,3.522,15.891-2.621,15.236-4.751   c-0.655-2.129,0.164-5.488,0.164-5.488s1.509,0.095,2.621-0.655c1.761-1.187,0.574-4.013,0.574-4.013   c1.72-0.819,2.376-2.621,1.065-4.014c-1.311-1.392-1.229-2.948-1.229-2.948S437.811,114.078,438.793,112.113z M365.415,103.448   c-2.475-0.687-4.508-2.427-6.038-5.168c-0.728-1.305-5.82-15.02-9.444-24.947l7.601,1.62l1.429,11.408l2.067-0.258l-2.087-16.672   l8.594,3.026c-1.034,3.27-4.161,13.857-3.774,21.037c0.143,2.754,1.088,4.8,2.808,6.085c1.557,1.163,3.427,1.435,4.855,1.435   c0.842,0,1.415-0.082,1.802-0.15c0.213,0.524,0.433,1.039,0.652,1.557C372.672,103.013,369.132,104.502,365.415,103.448z    M373.581,146.542c-0.292,1.027-0.911,2.285-2.203,2.339c-0.027,0-0.061,0-0.095,0c-1.421,0-3.019-1.394-3.515-3.094   c-0.025-0.088-0.077-0.133-0.105-0.218l1.061-3.5L373.581,146.542z M368.971,134.072l-2.656,8.742   c-1.723-2.338-4.137-3.165-5.306-3.439c-0.571-1.72-2.271-7.078-3.155-12.361c-0.185-1.115-0.276-2.065-0.36-3.004   C361.894,130.451,366.854,133.231,368.971,134.072z M367.985,117.407c-0.768,0.598-1.904,0.823-3.107,1.067   c-1.707,0.34-3.631,0.728-4.719,2.38c-0.398,0.604-0.594,1.362-0.695,2.207c-0.694-0.981-1.405-1.81-2.054-3.004   c0.461-5.317,3.355-6.664,6.795-8.253c4.961-2.296,6.112-4.743,6.603-6.204c1.768-0.345,3.093-0.892,3.878-1.265   c0.039,0.091,0.078,0.174,0.118,0.265C374.257,107.01,372.376,113.978,367.985,117.407z M379.654,108.017l-4.26-9.174l50.13-23.263   c3.277,6.226,3.604,13.597,3.604,13.597L379.654,108.017z"/>
        <path style="fill:#464655;"
              d="M165.138,407.113c1.482-2.965-6.714-12.569-6.279-14.744c0.435-2.176,1.406-5.51-2.076-18.13   c-3.481-12.62-13.94-15.669-26.56-16.975s-29.304,7.745-33.072,17.624c-2.274,5.962-0.736,12.622,1.65,18.961   c-1.071,0.116-3.122,0.175-4.635-0.943c-1.203-0.897-1.863-2.421-1.979-4.522c-0.422-8.003,3.944-21.112,3.991-21.241l0.326-0.979   l-13.707-4.834l0.806,6.432l-10.576-2.257l0.646,1.775c0.932,2.557,9.125,25.035,10.226,27.021c1.809,3.243,4.263,5.317,7.296,6.16   c1.088,0.306,2.162,0.422,3.182,0.422c0.131,0,0.241-0.034,0.37-0.037c-0.621,1.143-1.877,2.585-5.075,4.069   c-3.752,1.729-7.55,3.593-7.965,10.596l-0.112,0.059c0.034,0.065,0.073,0.1,0.107,0.164c-0.09,1.85-0.006,3.965,0.437,6.622   c1.101,6.568,3.338,13.014,3.434,13.286l0.218,0.619l0.653,0.075c0.048,0,4.352,0.517,5.671,5.038   c0.762,2.618,3.162,4.603,5.521,4.603c0.061,0,0.122-0.007,0.184-0.007c1.02-0.048,3.488-0.578,4.29-4.576l0.116-0.578   l-6.483-5.965l2.172-7.165l-1.034-0.279c-0.06-0.015-4.354-1.307-8.798-6.154c-0.411-1.996-0.363-3.438,0.169-4.256   c0.605-0.918,1.89-1.176,3.379-1.475c1.387-0.279,2.822-0.564,3.984-1.469c3.737-2.921,5.829-7.943,6.888-11.383   c0.574,1.299,1.124,2.563,1.611,3.768c3.699,9.138-6.527,19.582-6.527,19.582c6.527,2.611,7.18,4.134,16.318,15.448   s17.406,6.527,17.406,6.527s-1.176-7.244,4.83-10.302c6.007-3.058,6.143-6.99,6.143-6.99c14.99,3.522,15.891-2.621,15.236-4.751   c-0.655-2.129,0.164-5.488,0.164-5.488s1.509,0.095,2.621-0.655c1.761-1.187,0.574-4.013,0.574-4.013   c1.72-0.819,2.376-2.621,1.065-4.014c-1.311-1.392-1.229-2.948-1.229-2.948S164.156,409.078,165.138,407.113z M91.76,398.448   c-2.475-0.687-4.508-2.427-6.038-5.168c-0.728-1.305-5.82-15.02-9.444-24.947l7.601,1.62l1.429,11.408l2.067-0.258l-2.087-16.672   l8.594,3.026c-1.034,3.271-4.161,13.857-3.774,21.037c0.143,2.754,1.088,4.8,2.808,6.085c1.557,1.163,3.427,1.435,4.855,1.435   c0.842,0,1.415-0.082,1.802-0.15c0.213,0.524,0.433,1.039,0.652,1.557C99.017,398.013,95.476,399.502,91.76,398.448z    M99.926,441.542c-0.292,1.027-0.911,2.285-2.203,2.339c-0.027,0-0.061,0-0.095,0c-1.421,0-3.019-1.394-3.515-3.094   c-0.025-0.088-0.077-0.133-0.105-0.218l1.061-3.5L99.926,441.542z M95.316,429.072l-2.656,8.742   c-1.723-2.338-4.137-3.165-5.306-3.439c-0.571-1.72-2.271-7.078-3.155-12.361c-0.185-1.115-0.276-2.065-0.36-3.004   C88.239,425.451,93.199,428.231,95.316,429.072z M94.33,412.407c-0.768,0.598-1.904,0.823-3.107,1.068   c-1.707,0.34-3.631,0.728-4.719,2.38c-0.398,0.604-0.594,1.362-0.695,2.207c-0.694-0.981-1.405-1.81-2.054-3.004   c0.461-5.317,3.355-6.664,6.795-8.253c4.961-2.296,6.112-4.743,6.603-6.204c1.768-0.345,3.093-0.892,3.878-1.265   c0.039,0.091,0.078,0.174,0.118,0.265C100.602,402.01,98.721,408.978,94.33,412.407z M105.998,403.017l-4.26-9.174l50.13-23.263   c3.277,6.226,3.605,13.597,3.605,13.597L105.998,403.017z"/>
        <path style="fill:#464655;"
              d="M438.793,407.113c1.482-2.965-6.714-12.569-6.279-14.744s1.406-5.51-2.076-18.13   c-3.481-12.62-13.94-15.669-26.56-16.975c-12.62-1.305-29.304,7.745-33.072,17.624c-2.274,5.962-0.736,12.622,1.65,18.961   c-1.071,0.116-3.122,0.175-4.635-0.943c-1.203-0.897-1.863-2.421-1.979-4.522c-0.422-8.003,3.944-21.112,3.991-21.241l0.326-0.979   l-13.707-4.834l0.806,6.432l-10.576-2.257l0.646,1.775c0.931,2.557,9.125,25.035,10.226,27.021c1.809,3.243,4.263,5.317,7.296,6.16   c1.088,0.306,2.162,0.422,3.182,0.422c0.131,0,0.241-0.034,0.37-0.037c-0.621,1.143-1.877,2.585-5.075,4.069   c-3.752,1.729-7.55,3.593-7.965,10.596l-0.112,0.059c0.034,0.065,0.073,0.1,0.107,0.164c-0.09,1.85-0.006,3.965,0.437,6.622   c1.101,6.568,3.338,13.014,3.434,13.286l0.218,0.619l0.653,0.075c0.048,0,4.352,0.517,5.671,5.038   c0.762,2.618,3.162,4.603,5.521,4.603c0.061,0,0.122-0.007,0.184-0.007c1.02-0.048,3.488-0.578,4.29-4.576l0.116-0.578   l-6.483-5.965l2.172-7.165l-1.034-0.279c-0.06-0.015-4.354-1.307-8.797-6.154c-0.411-1.996-0.363-3.438,0.169-4.256   c0.605-0.918,1.89-1.176,3.379-1.475c1.387-0.279,2.822-0.564,3.984-1.469c3.737-2.921,5.829-7.943,6.888-11.383   c0.574,1.299,1.124,2.563,1.611,3.768c3.699,9.138-6.527,19.582-6.527,19.582c6.527,2.611,7.18,4.134,16.318,15.448   s17.406,6.527,17.406,6.527s-1.176-7.244,4.83-10.302c6.007-3.058,6.143-6.99,6.143-6.99c14.99,3.522,15.891-2.621,15.236-4.751   c-0.655-2.129,0.164-5.488,0.164-5.488s1.509,0.095,2.621-0.655c1.761-1.187,0.574-4.013,0.574-4.013   c1.72-0.819,2.376-2.621,1.065-4.014c-1.311-1.392-1.229-2.948-1.229-2.948S437.811,409.078,438.793,407.113z M365.415,398.448   c-2.475-0.687-4.508-2.427-6.038-5.168c-0.728-1.305-5.82-15.02-9.444-24.947l7.601,1.62l1.429,11.408l2.067-0.258l-2.087-16.672   l8.594,3.026c-1.034,3.271-4.161,13.857-3.774,21.037c0.143,2.754,1.088,4.8,2.808,6.085c1.557,1.163,3.427,1.435,4.855,1.435   c0.842,0,1.415-0.082,1.802-0.15c0.213,0.524,0.433,1.039,0.652,1.557C372.672,398.013,369.132,399.502,365.415,398.448z    M373.581,441.542c-0.292,1.027-0.911,2.285-2.203,2.339c-0.027,0-0.061,0-0.095,0c-1.421,0-3.019-1.394-3.515-3.094   c-0.025-0.088-0.077-0.133-0.105-0.218l1.061-3.5L373.581,441.542z M368.971,429.072l-2.656,8.742   c-1.723-2.338-4.137-3.165-5.306-3.439c-0.571-1.72-2.271-7.078-3.155-12.361c-0.185-1.115-0.276-2.065-0.36-3.004   C361.894,425.451,366.854,428.231,368.971,429.072z M367.985,412.407c-0.768,0.598-1.904,0.823-3.107,1.068   c-1.707,0.34-3.631,0.728-4.719,2.38c-0.398,0.604-0.594,1.362-0.695,2.207c-0.694-0.981-1.405-1.81-2.054-3.004   c0.461-5.317,3.355-6.664,6.795-8.253c4.961-2.296,6.112-4.743,6.603-6.204c1.768-0.345,3.093-0.892,3.878-1.265   c0.039,0.091,0.078,0.174,0.118,0.265C374.257,402.01,372.376,408.978,367.985,412.407z M379.654,403.017l-4.26-9.174l50.13-23.263   c3.277,6.226,3.604,13.597,3.604,13.597L379.654,403.017z"/>
</g>
    <g>
</g>
    <g>
</g>
    <g>
</g>
    <g>
</g>
    <g>
</g>
    <g>
</g>
    <g>
</g>
    <g>
</g>
    <g>
</g>
    <g>
</g>
    <g>
</g>
    <g>
</g>
    <g>
</g>
    <g>
</g>
    <g>
</g>
</svg>
