<?xml version="1.0" encoding="UTF-8"?>
<svg width="24px" height="24px" viewBox="0 0 24 24" version="1.1" xmlns="http://www.w3.org/2000/svg"
     xmlns:xlink="http://www.w3.org/1999/xlink">
    <!-- Generator: Sketch 50.2 (55047) - http://www.bohemiancoding.com/sketch -->
    <title>Stockholm-icons / Files / Compilation</title>
    <desc>Created with Sketch.</desc>
    <defs></defs>
    <g id="Stockholm-icons-/-Files-/-Compilation" stroke="none" stroke-width="1" fill="none" fill-rule="evenodd">
        <rect id="bound" x="0" y="0" width="24" height="24"></rect>
        <path
            d="M3.5,21 L20.5,21 C21.3284271,21 22,20.3284271 22,19.5 L22,8.5 C22,7.67157288 21.3284271,7 20.5,7 L10,7 L7.43933983,4.43933983 C7.15803526,4.15803526 6.77650439,4 6.37867966,4 L3.5,4 C2.67157288,4 2,4.67157288 2,5.5 L2,19.5 C2,20.3284271 2.67157288,21 3.5,21 Z"
            id="Combined-Shape" fill="#000000" opacity="0.3"></path>
        <rect id="Rectangle-41" fill="#000000" opacity="0.3"
              transform="translate(8.984240, 14.127098) rotate(-45.000000) translate(-8.984240, -14.127098) "
              x="7.41281179" y="12.5556689" width="3.14285714" height="3.14285714" rx="0.75"></rect>
        <rect id="Rectangle-41-Copy" fill="#000000" opacity="0.3"
              transform="translate(15.269955, 14.127098) rotate(-45.000000) translate(-15.269955, -14.127098) "
              x="13.6985261" y="12.5556689" width="3.14285714" height="3.14285714" rx="0.75"></rect>
        <rect id="Rectangle-41-Copy-3" fill="#000000"
              transform="translate(12.127098, 17.269955) rotate(-45.000000) translate(-12.127098, -17.269955) "
              x="10.5556689" y="15.6985261" width="3.14285714" height="3.14285714" rx="0.75"></rect>
        <rect id="Rectangle-41-Copy-4" fill="#000000"
              transform="translate(12.127098, 10.984240) rotate(-45.000000) translate(-12.127098, -10.984240) "
              x="10.5556689" y="9.41281179" width="3.14285714" height="3.14285714" rx="0.75"></rect>
    </g>
</svg>
